<svg id="_003-exchange" data-name="003-exchange" xmlns="http://www.w3.org/2000/svg" width="16.029" height="16.029" viewBox="0 0 16.029 16.029">
  <path id="Path_1709" data-name="Path 1709" d="M15.867,3.968,9.624.54a.313.313,0,0,0-.3,0L6.97,1.832a.314.314,0,0,0-.134.074L3.08,3.968a.313.313,0,0,0-.162.274V8.388a4.171,4.171,0,0,0-2.495,5.8.313.313,0,0,0,.563-.275,3.539,3.539,0,1,1,1.627,1.627.313.313,0,0,0-.275.563A4.174,4.174,0,0,0,7.974,14.06l1.349.741a.313.313,0,0,0,.3,0l6.243-3.428a.313.313,0,0,0,.162-.274V8.922a.313.313,0,1,0-.626,0v1.99L9.788,14V7.855l1.853-1.018V8.45a.313.313,0,0,0,.464.274l1.338-.736a.313.313,0,0,0,.162-.274V5.759l1.8-.988V6.418a.313.313,0,1,0,.626,0V4.242A.313.313,0,0,0,15.867,3.968Zm-6.394-2.8,5.592,3.071L13.3,5.211,7.71,2.14Zm0,6.142L3.881,4.242l1.829-1L11.3,6.309Zm2.479-1.361L6.361,2.881l.7-.384,5.592,3.071ZM7.112,9.418A4.138,4.138,0,0,0,4.167,8.2a4.223,4.223,0,0,0-.623.046V4.771L9.162,7.856V14l-.975-.535a4.186,4.186,0,0,0,.146-1.1A4.138,4.138,0,0,0,7.112,9.418Zm5.867-1.889-.712.392V6.493l.712-.391Zm0,0" transform="translate(0 -0.501)" fill="#fff"/>
  <path id="Path_1710" data-name="Path 1710" d="M492.287,219.441a.287.287,0,1,0,.2.084A.289.289,0,0,0,492.287,219.441Zm0,0" transform="translate(-476.545 -212.564)" fill="#fff"/>
  <path id="Path_1711" data-name="Path 1711" d="M66.435,323.372a.287.287,0,0,0,.2-.49l-.2-.2h1.7a.746.746,0,0,1,0,1.492h-1a.287.287,0,1,0,0,.574h1a1.32,1.32,0,1,0,0-2.639h-1.7l.2-.2a.287.287,0,1,0-.406-.406l-.689.689a.287.287,0,0,0,0,.406l.689.689A.286.286,0,0,0,66.435,323.372Zm0,0" transform="translate(-63.582 -310.874)" fill="#fff"/>
  <path id="Path_1712" data-name="Path 1712" d="M36.355,457.006a.285.285,0,0,1-.219-.1h0a.286.286,0,1,1,.22.1Zm0,0" transform="translate(-35.033 -442.011)" fill="#fff"/>
</svg>
